{
  "project_info": {
    "project_number": "288607103787",
    "firebase_url": "https://pane-54437.firebaseio.com",
    "project_id": "pane-54437",
    "storage_bucket": "pane-54437.appspot.com"
  },
  "client": [
    {
      "client_info": {
        "mobilesdk_app_id": "1:288607103787:android:7bbcb41e57e5fb80",
        "android_client_info": {
          "package_name": "com.food.foodpane"
        }
      },
      "oauth_client": [
        {
          "client_id": "288607103787-80cqftr2amq7q90eicg52s822i3pmbch.apps.googleusercontent.com",
          "client_type": 3
        }
      ],
      "api_key": [
        {
          "current_key": "AIzaSyAFcYmkNED1GWEsN301Q44KgDTTQ27_vTI"
        }
      ],
      "services": {
        "appinvite_service": {
          "other_platform_oauth_client": [
            {
              "client_id": "288607103787-80cqftr2amq7q90eicg52s822i3pmbch.apps.googleusercontent.com",
              "client_type": 3
            }
          ]
        }
      }
    }
  ],
  "configuration_version": "1"
}